org/parking/entity/CarsEntity.class
org/parking/controller/ParkingHistoryController.class
org/parking/exception/CantAddParkingLotWithCarException.class
org/parking/controller/ParkingController.class
org/parking/service/HumansService.class
org/parking/service/CarsService.class
org/parking/repository/ParkingHistoryRepository.class
org/parking/repository/CarsRepository.class
org/parking/controller/HumansController.class
org/parking/repository/HumansRepository.class
org/parking/repository/ParkingRepository.class
org/parking/service/ParkingService.class
org/parking/controller/CarsController.class
org/parking/entity/ParkingHistoryEntity.class
org/parking/exception/WrongRequestException.class
org/parking/service/ParkingHistoryService.class
org/parking/ParkingApplication.class
org/parking/entity/ParkingEntity.class
org/parking/entity/HumansEntity.class
